[
	"broke a leg",
	"fell off a small cliff",
	"was scared by a falling leaf",
	"got an arrow to their knee",
	"stepped on a lego",
	"stepped on a snake",
	"tried to have an argument with a pidgeon",
	"started thinking about the past"
]