{
	"first class": {
		"hidden": true,
		"tag": "굿 first class",
		"name": "first class",
		"desc": "",
		"type": 0,
		"sprite": "굿"
	},
	"second class": {
		"hidden": true,
		"tag": "꿋 second class",
		"name": "second class",
		"desc": "",
		"type": 0,
		"sprite": "꿋"
	},
	"third class": {
		"hidden": true,
		"tag": "눗 third class",
		"name": "third class",
		"desc": "",
		"type": 0,
		"sprite": "눗"
	},
	"fourth class": {
		"hidden": true,
		"tag": "둣 fourth class",
		"name": "fourth class",
		"desc": "",
		"type": 0,
		"sprite": "둣"
	},
	"fifth class": {
		"hidden": true,
		"tag": "뚯 fifth class",
		"name": "fifth class",
		"desc": "",
		"type": 0,
		"sprite": "뚯"
	},
	"sixth class": {
		"hidden": true,
		"tag": "룻 sixth class",
		"name": "second class",
		"desc": "",
		"type": 0,
		"sprite": "룻"
	},
	"square": {
		"tag": "믓 \u0002square\u0002",
		"name": "square",
		"desc": "has a square head",
		"type": 0,
		"sprite": "믓",
		"sprites": ["믓", "믯", "뮷"]
	},
	"demon": {
		"tag": "븟 \u0002demon\u0002",
		"name": "demon",
		"desc": "has cool little horns",
		"type": 1,
		"sprite": "븟",
		"sprites": ["븟", "븻", "븃"]
	},
	"9th class": {
		"hidden": true,
		"tag": "뿟 9th class",
		"name": "9th class",
		"desc": "",
		"type": 0,
		"sprite": "뿟"
	},
	"priest": {
		"tag": "숫 \u0002priest\u0002",
		"name": "priest",
		"desc": "*wololo* https://youtu.be/3tBqdKGiqnI",
		"type": 1,
		"sprite": "숫",
		"sprites": ["숫", "싓", "슛"]
	},
	"11th class": {
		"hidden": true,
		"tag": "쑷 11th class",
		"name": "11th class",
		"desc": "",
		"type": 0,
		"sprite": "쑷"
	},
	"normie": {
		"tag": "웃 \u0002normie\u0002",
		"name": "normie",
		"desc": "its normal",
		"type": 0,
		"sprite": "웃",
		"sprites": ["웃", "웃", "웃"]
	},
	"sorcerer": {
		"tag": "줏 \u0002sorcerer\u0002",
		"name": "sorcerer",
		"desc": "a spellcaster who draws on magic",
		"type": 1,
		"sprite": "줏"
	},
	"14th class": {
		"hidden": true,
		"tag": "쭛 14th class",
		"name": "14th class",
		"desc": "",
		"type": 0,
		"sprite": "쭛"
	},
	"15th class": {
		"hidden": true,
		"tag": "춧 15th class",
		"name": "15th class",
		"desc": "",
		"type": 0,
		"sprite": "춧"
	},
	"16th class": {
		"hidden": true,
		"tag": "쿳 16th class",
		"name": "16th class",
		"desc": "",
		"type": 0,
		"sprite": "쿳"
	},
	"17th class": {
		"hidden": true,
		"tag": "툿 17th class",
		"name": "17th class",
		"desc": "",
		"type": 0,
		"sprite": "툿"
	},
	"knight": {
		"tag": "픗 \u0002knight\u0002",
		"name": "knight",
		"desc": "a holy warrior",
		"type": 0,
		"sprite": "풋",
		"sprites": ["픗", "픳", "퓻"]
	},
	"wizard": {
		"tag": "훗 \u0002wizard\u0002",
		"name": "wizard",
		"desc": "a scholarly magic user (and has a little hat)",
		"type": 1,
		"sprite": "훗",
		"sprites": ["훗", "흿", "흇"]
	},


	"mango": {
		"tag": "🍊 \u0002mango\u0002",
		"name": "mango",
		"desc": "eh, its actually an orange emoji",
		"type": 0,
		"sprite": "🍊",
		"hidden": true
	}
}